{
    "paths": [
        {
            "name": "/credentials",
            "lambdaFunction": "credFunc",
            "privacy": {
                "open": true
            }
        }
    ],
    "resourceName": "credAPI",
    "apiName": "credAPI",
    "functionArns": [
        {
            "lambdaFunction": "credFunc"
        }
    ],
    "privacy": {
        "auth": 0,
        "unauth": 0,
        "authRoleName": "ssaaes-20190123153226-authRole",
        "unAuthRoleName": "ssaaes-20190123153226-unauthRole"
    },
    "dependsOn": [
        {
            "category": "function",
            "resourceName": "credFunc",
            "attributes": [
                "Name",
                "Arn"
            ]
        }
    ]
}