{
    "NONE": {
        "awscloudformation": {
            "AuthRoleName": "ssaaes-20190119162736-authRole",
            "UnauthRoleArn": "arn:aws:iam::784252067734:role/ssaaes-20190119162736-unauthRole",
            "AuthRoleArn": "arn:aws:iam::784252067734:role/ssaaes-20190119162736-authRole",
            "Region": "us-east-1",
            "DeploymentBucketName": "ssaaes-20190119162736-deployment",
            "UnauthRoleName": "ssaaes-20190119162736-unauthRole",
            "StackName": "ssaaes-20190119162736",
            "StackId": "arn:aws:cloudformation:us-east-1:784252067734:stack/ssaaes-20190119162736/0ac4ddc0-1c31-11e9-97ee-124d1eab42ba"
        },
        "categories": {
            "auth": {
                "cognito6d7e8c53": {}
            }
        }
    },
    "master": {
        "awscloudformation": {
            "AuthRoleName": "ssaaes-20190123153226-authRole",
            "UnauthRoleArn": "arn:aws:iam::784252067734:role/ssaaes-20190123153226-unauthRole",
            "AuthRoleArn": "arn:aws:iam::784252067734:role/ssaaes-20190123153226-authRole",
            "Region": "us-east-1",
            "DeploymentBucketName": "ssaaes-20190123153226-deployment",
            "UnauthRoleName": "ssaaes-20190123153226-unauthRole",
            "StackName": "ssaaes-20190123153226",
            "StackId": "arn:aws:cloudformation:us-east-1:784252067734:stack/ssaaes-20190123153226/ff2098e0-1f4d-11e9-8006-0a437bda7b86"
        },
        "categories": {
            "auth": {
                "cognito6d7e8c53": {}
            }
        }
    }
}